<?xml version="1.0" standalone="no"?>
<!DOCTYPE svg PUBLIC "-//W3C//DTD SVG 1.1//EN" "http://www.w3.org/Graphics/SVG/1.1/DTD/svg11.dtd" >
<svg xmlns="http://www.w3.org/2000/svg">
<metadata>Generated by IcoMoon</metadata>
<defs>
<font id="lms-icon" horiz-adv-x="1024">
<font-face units-per-em="1024" ascent="960" descent="-64" />
<missing-glyph horiz-adv-x="1024" />
<glyph unicode="&#x20;" horiz-adv-x="512" d="" />
<glyph unicode="&#xe900;" glyph-name="diary" d="M221.867 960c-26.402 0-51.763-11.298-69.598-31.010-17.527-19.405-26.163-45.38-23.842-71.39h-0.427v-835.55c0-47.445 38.605-86.050 86.050-86.050h681.95v1024h-674.133zM162.133 22.050v767.317c14.268-10.735 32-17.101 51.2-17.101v-802.065c-28.297 0.393-51.2 23.467-51.2 51.849zM861.867-29.867h-614.4v802.133h51.2v-430.097c0-1.826 0.188-3.601 0.529-5.308 0.051-0.239 0.154-0.461 0.222-0.7 0.341-1.485 0.768-2.918 1.348-4.284 0.068-0.171 0.188-0.324 0.273-0.495 0.649-1.434 1.417-2.799 2.304-4.062 0.051-0.085 0.137-0.154 0.188-0.222 0.973-1.348 2.065-2.577 3.294-3.703 0.017-0.017 0.051-0.051 0.068-0.085 0.068-0.051 0.137-0.085 0.205-0.137 4.523-4.079 10.513-6.588 17.237-6.588 7.031 0 13.5 2.918 18.244 7.868 1.365 1.348 2.577 2.867 3.584 4.557l71.97 119.945 71.97-119.962c1.86-3.072 4.369-5.495 7.168-7.509 4.233-3.055 9.25-4.915 14.677-4.915 3.26 0 6.315 0.649 9.148 1.707 0.085 0.034 0.188 0.051 0.29 0.085 2.953 1.126 5.598 2.816 7.885 4.881 0.034 0.034 0.085 0.034 0.102 0.068 0.034 0.017 0.051 0.051 0.068 0.085 1.212 1.126 2.304 2.338 3.277 3.686 0.068 0.085 0.137 0.154 0.205 0.256 0.887 1.263 1.655 2.628 2.304 4.045 0.085 0.171 0.188 0.324 0.273 0.512 0.58 1.348 0.99 2.765 1.331 4.215 0.068 0.273 0.188 0.512 0.239 0.785 0.341 1.707 0.529 3.482 0.529 5.291v430.080h324.267v-802.133zM548.147 806.4l34.133 68.267h-242.961l-34.133-68.267h-79.701c-32.324 0-60.006 23.535-63.027 53.589-1.724 17.033 3.652 33.399 15.138 46.097 11.349 12.578 27.494 19.78 44.271 19.78h640v-17.067h-85.333c-9.438 0-17.067-7.629-17.067-17.067s7.629-17.067 17.067-17.067h85.333v-17.067h-68.267c-9.438 0-17.067-7.629-17.067-17.067s7.629-17.067 17.067-17.067h68.267v-17.067h-313.719z" />
<glyph unicode="&#xe901;" glyph-name="schedule" d="M812.138 359.724c-116.824 0-211.862-95.038-211.862-211.862s95.038-211.862 211.862-211.862 211.862 95.038 211.862 211.862-95.038 211.862-211.862 211.862zM812.138-28.69c-97.351 0-176.552 79.201-176.552 176.552s79.201 176.552 176.552 176.552 176.552-79.201 176.552-176.552-79.201-176.552-176.552-176.552zM918.069 165.517h-88.276v88.276c0 9.763-7.892 17.655-17.655 17.655s-17.655-7.892-17.655-17.655v-105.931c0-9.763 7.892-17.655 17.655-17.655h105.931c9.763 0 17.655 7.892 17.655 17.655s-7.892 17.655-17.655 17.655zM476.69 589.241h-353.103v-512h353.103v317.793h317.793v194.207h-317.793zM635.586 553.931h123.586v-123.586h-123.586v123.586zM317.793 553.931h123.586v-123.586h-123.586v123.586zM158.897 553.931h123.586v-123.586h-123.586v123.586zM158.897 395.034h123.586v-123.586h-123.586v123.586zM282.483 112.552h-123.586v123.586h123.586v-123.586zM441.379 112.552h-123.586v123.586h123.586v-123.586zM441.379 271.448h-123.586v123.586h123.586v-123.586zM600.276 430.345h-123.586v123.586h123.586v-123.586zM582.621-11.034h-547.31v688.552h847.448v-229.517c0-9.763 7.892-17.655 17.655-17.655s17.655 7.892 17.655 17.655v423.724c0 9.763-7.892 17.655-17.655 17.655h-88.276v52.966c0 9.763-7.892 17.655-17.655 17.655h-123.586c-9.763 0-17.655-7.892-17.655-17.655v-52.966h-388.414v52.966c0 9.763-7.892 17.655-17.655 17.655h-123.586c-9.763 0-17.655-7.892-17.655-17.655v-52.966h-88.276c-9.763 0-17.655-7.892-17.655-17.655v-900.414c0-9.763 7.892-17.655 17.655-17.655h564.966c9.763 0 17.655 7.892 17.655 17.655s-7.892 17.655-17.655 17.655zM688.552 924.69h88.276v-105.931h-88.276v105.931zM141.241 924.69h88.276v-105.931h-88.276v105.931zM35.31 854.069h70.621v-52.966c0-9.763 7.892-17.655 17.655-17.655h123.586c9.763 0 17.655 7.892 17.655 17.655v52.966h388.414v-52.966c0-9.763 7.892-17.655 17.655-17.655h123.586c9.763 0 17.655 7.892 17.655 17.655v52.966h70.621v-141.241h-847.448v141.241z" />
<glyph unicode="&#xe90c;" glyph-name="add" d="M744.816 478.096h-194.288v194.272c0 17.664-14.32 32-32 32s-32-14.336-32-32v-194.288h-194.272c-17.68 0-32-14.336-32-32s14.32-32 32-32h194.288v-194.288c0-17.664 14.32-32 32-32s32 14.336 32 32v194.304h194.288c17.68 0 32 14.336 32 32s-14.336 32-32.016 32zM512 960c-282.32 0-512-229.68-512-512s229.68-512 512-512 512 229.68 512 512-229.68 512-512 512zM512 0c-247.024 0-448 200.976-448 448s200.976 448 448 448 448-200.976 448-448-200.976-448-448-448z" />
<glyph unicode="&#xe90d;" glyph-name="delete" d="M872 840h-180v30c0 49.626-40.374 90-90 90h-180c-49.626 0-90-40.374-90-90v-30h-180c-49.626 0-90-40.374-90-90v-60c0-16.568 13.432-30 30-30h32.366l52.774-641.89c0.006-0.086 0.014-0.172 0.022-0.258 4.244-46.664 42.778-81.852 89.63-81.852h490.414c46.854 0 85.386 35.188 89.63 81.852 0.008 0.086 0.016 0.172 0.022 0.258l52.776 641.89h32.366c16.568 0 30 13.432 30 30v60c0 49.626-40.374 90-90 90zM392 870c0 16.542 13.458 30 30 30h180c16.542 0 30-13.458 30-30v-30h-240v30zM787.074 23.184c-1.458-15.506-14.284-27.184-29.868-27.184h-490.414c-15.584 0-28.408 11.678-29.868 27.184l-52.356 636.816h654.864l-52.358-636.816zM902 720h-780v30c0 16.542 13.458 30 30 30h720c16.542 0 30-13.458 30-30v-30zM512 600c-16.568 0-30-13.432-30-30v-424c0-16.568 13.432-30 30-30s30 13.432 30 30v424c0 16.568-13.432 30-30 30zM692 600c-16.568 0-30-13.432-30-30v-424c0-16.568 13.432-30 30-30s30 13.432 30 30v424c0 16.568-13.432 30-30 30zM332 600c-16.568 0-30-13.432-30-30v-424c0-16.568 13.432-30 30-30s30 13.432 30 30v424c0 16.568-13.432 30-30 30z" />
<glyph unicode="&#xe90e;" glyph-name="download" d="M811.932 585.067c-2.138 156.122-129.804 282.477-286.425 282.477-69.67 0-136.792-25.344-188.996-71.364-46.592-41.070-78.464-95.954-91.086-156.212-0.922 0.010-1.836 0.018-2.748 0.018-133.81-0.002-242.678-108.868-242.678-242.68s108.868-242.678 242.68-242.678h89.068c12.058 0 21.838 9.776 21.838 21.838s-9.78 21.838-21.838 21.838h-89.068c-109.732 0-199.004 89.272-199.004 199.002s89.272 199.002 199.004 199.002c5.846 0 12.026-0.314 18.896-0.96 11.644-1.080 22.098 7.192 23.684 18.792 7.864 57.64 36.322 110.654 80.134 149.276 44.222 38.984 101.084 60.452 160.112 60.452 133.87 0 242.778-108.91 242.778-242.778 0-4.82-0.898-17.284-0.898-17.284-0.454-6.424 1.95-12.722 6.574-17.208 4.618-4.486 10.976-6.698 17.394-6.060 5.808 0.586 11.668 0.88 17.416 0.88 94.594 0 171.556-76.96 171.556-171.556 0-94.594-76.96-171.554-171.556-171.554h-97.804c-12.058 0-21.838-9.776-21.838-21.838s9.78-21.838 21.838-21.838h97.804c118.678 0 215.232 96.55 215.232 215.23-0.002 117.616-94.842 213.504-212.068 215.204zM525.509 764.904c-91.316 0-169.484-68.242-181.828-158.734-1.63-11.95 6.742-22.924 18.686-24.59 12.736-1.776 23.096 7.738 24.59 18.686 9.404 68.958 68.968 120.96 138.552 120.96 12.062 0 21.838 9.776 21.838 21.838 0 12.064-9.778 21.84-21.838 21.84zM626.557 139.436c-8.034 8.992-21.84 9.774-30.836 1.736l-52.53-46.926v268.661c0 12.062-9.78 21.838-21.838 21.838-12.062 0-21.838-9.776-21.838-21.838v-268.659l-52.528 46.926c-8.992 8.036-22.802 7.254-30.834-1.736-8.036-8.996-7.26-22.798 1.736-30.836l79.434-70.966c6.85-6.122 15.438-9.18 24.028-9.18 8.588 0 17.178 3.060 24.026 9.178l79.438 70.966c8.998 8.034 9.776 21.84 1.742 30.836z" />
<glyph unicode="&#xe90f;" glyph-name="edit2" d="M795.472 803.244c13.648 0 24.716 11.066 24.716 24.716v77.986c0 29.804-24.234 54.054-54.028 54.054h-522.878c-6.554 0-12.84-2.606-17.478-7.24l-204.75-204.75c-4.634-4.634-7.24-10.922-7.24-17.476v-740.478c0.002-29.806 24.25-54.056 54.056-54.056h698.288c29.794 0 54.028 24.25 54.028 54.054v377.368c0.002 13.648-11.064 24.716-24.714 24.716-13.648 0-24.716-11.066-24.716-24.716v-377.368c0-2.548-2.062-4.622-4.594-4.622h-698.29c-2.548 0-4.622 2.074-4.622 4.622v715.76h150.72c29.796 0 54.032 24.24 54.032 54.034v150.72h498.158c2.534 0 4.594-2.074 4.594-4.622v-77.986c0-13.65 11.068-24.716 24.718-24.716zM218.57 759.85c0-2.538-2.064-4.602-4.6-4.602h-115.756l120.356 120.36v-115.758zM985.73 759.208l-29.082 29.078c-32.608 32.608-85.664 32.604-118.276 0l-230.846-230.846h-400.408c-13.65 0-24.716-11.066-24.716-24.716s11.066-24.716 24.716-24.716h350.976l-148.758-148.758h-202.218c-13.65 0-24.716-11.066-24.716-24.716s11.066-24.716 24.716-24.716h152.784l-0.398-0.398c-3.016-3.016-5.196-6.758-6.338-10.866l-38.176-137.494h-107.872c-13.65 0-24.716-11.066-24.716-24.716s11.066-24.716 24.716-24.716h126.664c0.002 0 5.418 0.612 6.214 0.82 0.13 0.034 155.994 43.284 155.994 43.284 4.108 1.14 7.852 3.324 10.866 6.338l478.876 478.87c32.604 32.604 32.604 85.66-0.002 118.268zM369.288 171.854l20.174 72.652 52.48-52.48-72.654-20.172zM489.38 214.496l-77.442 77.442 395.296 395.296 77.444-77.442-395.298-395.296zM950.774 675.892l-31.142-31.142-77.444 77.444 31.142 31.142c13.338 13.336 35.034 13.334 48.362 0l29.082-29.082c13.334-13.334 13.334-35.030 0-48.362z" />
<glyph unicode="&#xe910;" glyph-name="eye" d="M1016.364 467.996c-2.298 2.572-57.346 63.7-146.471 125.354-119.164 82.434-242.923 126.006-357.893 126.006s-238.729-43.572-357.893-126.006c-89.126-61.654-144.173-122.782-146.471-125.354-10.182-11.386-10.182-28.606 0-39.992 2.298-2.572 57.346-63.7 146.471-125.354 119.164-82.434 242.923-126.006 357.893-126.006s238.729 43.572 357.893 126.006c89.126 61.654 144.173 122.782 146.471 125.354 10.182 11.388 10.182 28.606 0 39.992zM189.453 351.158c-53.872 37.13-95.008 74.664-117.6 96.83 38.746 37.95 132.123 121.054 252.031 171.007-41.122-45.198-66.22-105.22-66.22-170.995 0-65.694 25.038-125.648 66.068-170.829-52.122 21.676-97.988 48.972-134.279 73.986zM512 253.663c-107.158 0-194.339 87.18-194.339 194.337 0 107.158 87.18 194.337 194.339 194.337s194.339-87.178 194.339-194.337-87.18-194.337-194.339-194.337zM700.117 277.005c41.122 45.198 66.22 105.22 66.22 170.997 0 65.694-25.038 125.648-66.068 170.829 52.122-21.676 97.988-48.972 134.279-73.986 53.868-37.126 95-74.658 117.6-96.83-38.746-37.952-132.123-121.056-252.031-171.009zM512 544.686c-53.312 0-96.686-43.374-96.686-96.686s43.374-96.686 96.686-96.686c16.568 0 30 13.432 30 30 0 8.284-3.358 15.784-8.788 21.214-5.428 5.428-12.928 8.786-21.212 8.786-20.228 0-36.686 16.458-36.686 36.686s16.458 36.686 36.686 36.686c20.228 0 36.686-16.458 36.686-36.686 0-8.284 3.358-15.784 8.788-21.214 5.428-5.428 12.928-8.786 21.212-8.786 16.568 0 30 13.432 30 30 0 53.312-43.374 96.686-96.686 96.686z" />
<glyph unicode="&#xe911;" glyph-name="logout" d="M720.466 717.622c22.092 0 40 17.908 40 40v103.622c0 54.454-44.792 98.756-99.846 98.756h-478.774c-55.054 0-99.846-44.302-99.846-98.756v-826.488c0-54.454 44.792-98.756 99.846-98.756h478.774c55.054 0 99.846 44.302 99.846 98.756v103.622c0 22.090-17.91 39.998-40 39.998-22.092 0-40-17.908-40-40v-103.622c0-10.342-8.902-18.756-19.846-18.756h-478.774c-10.944 0-19.846 8.414-19.846 18.756v826.49c0 10.342 8.902 18.756 19.846 18.756h478.774c10.944 0 19.846-8.414 19.846-18.756v-103.622c0-22.092 17.908-40 40-40zM929.926 476.636l-212.884 207.602c-15.816 15.426-41.142 15.108-56.562-0.71-15.424-15.814-15.106-41.14 0.71-56.562l142.5-138.966h-382.458c-22.092 0-40-17.908-40-40s17.908-40 40-40h382.458l-142.5-138.964c-15.816-15.422-16.134-40.748-0.71-56.562 15.418-15.814 40.746-16.14 56.562-0.71l212.884 207.602c16.196 15.762 16 41.696 0 57.27z" />
<glyph unicode="&#xe912;" glyph-name="user" d="M1024 448c0 282.307-229.693 512-512 512s-512-229.693-512-512c0-149.113 64.121-283.518 166.186-377.167l-0.484-0.428 16.607-14.001c1.080-0.912 2.253-1.657 3.333-2.551 8.825-7.317 17.967-14.262 27.276-20.983 3.016-2.178 6.032-4.357 9.104-6.479 9.942-6.851 20.145-13.349 30.571-19.512 2.271-1.341 4.561-2.644 6.851-3.947 11.413-6.498 23.068-12.623 35.002-18.246 0.875-0.41 1.769-0.782 2.644-1.192 38.893-18.078 80.412-31.353 123.83-39.191 1.136-0.205 2.271-0.41 3.426-0.614 13.48-2.327 27.108-4.189 40.904-5.437 1.676-0.149 3.351-0.242 5.046-0.391 13.74-1.136 27.629-1.862 41.705-1.862 13.945 0 27.704 0.726 41.37 1.825 1.731 0.149 3.463 0.242 5.194 0.391 13.684 1.247 27.201 3.053 40.55 5.343 1.154 0.205 2.327 0.41 3.482 0.633 42.766 7.671 83.689 20.648 122.079 38.26 1.415 0.652 2.849 1.266 4.264 1.936 11.487 5.399 22.714 11.227 33.718 17.427 2.737 1.545 5.455 3.109 8.173 4.71 10.017 5.902 19.866 12.065 29.435 18.618 3.444 2.346 6.814 4.822 10.221 7.28 8.173 5.883 16.198 11.953 23.999 18.302 1.731 1.396 3.593 2.607 5.288 4.040l17.036 14.224-0.503 0.428c102.959 93.687 167.694 228.706 167.694 378.582zM37.236 448c0 261.79 212.973 474.764 474.764 474.764s474.764-212.973 474.764-474.764c0-141.070-61.905-267.897-159.912-354.918-5.474 3.779-10.985 7.168-16.626 9.998l-157.64 78.811c-14.15 7.075-22.938 21.299-22.938 37.106v55.054c3.649 4.506 7.503 9.607 11.487 15.211 20.406 28.821 36.771 60.881 48.705 95.381 23.589 11.208 38.819 34.704 38.819 61.235v66.001c0 16.142-5.921 31.8-16.514 44.106v86.891c0.968 9.681 4.394 64.195-35.058 109.177-34.313 39.173-89.851 59.001-165.087 59.001s-130.774-19.828-165.087-58.982c-39.452-44.982-36.026-99.533-35.058-109.177v-86.891c-10.575-12.307-16.514-27.965-16.514-44.106v-66.001c0-20.499 9.197-39.619 24.948-52.522 15.081-59.075 46.117-103.796 57.586-118.952v-53.881c0-15.192-8.285-29.156-21.634-36.454l-147.214-80.3c-4.692-2.551-9.346-5.53-14.001-8.862-96.796 86.984-157.789 213.029-157.789 353.075z" />
<glyph unicode="&#xe913;" glyph-name="camera" d="M905.641 43.47h-787.3c-65.264 0-118.341 53.077-118.341 118.341v479.933c0 65.264 53.077 118.341 118.341 118.341h160.649l14.062 47.436c5.739 25.957 29.468 45.009 57.377 45.009h323.148c27.12 0 51.122-18.954 57.475-45.245l0.374-1.617 12.819-45.58h161.416c65.264 0 118.341-53.077 118.341-118.341v-479.93c-0.018-65.27-53.114-118.347-118.359-118.347zM118.341 720.637c-43.511 0-78.893-35.385-78.893-78.893v-479.93c0-43.511 35.385-78.893 78.893-78.893h787.3c43.511 0 78.893 35.385 78.893 78.893v479.93c0 43.511-35.385 78.893-78.893 78.893h-191.277l-21.596 77.021c-1.992 8.955-10.060 15.443-19.211 15.443h-323.151c-9.29 0-17.18-6.35-19.211-15.464l-22.799-76.999h-190.055zM512.021 162.701c-138.043 0-250.35 112.286-250.35 250.31 0 138.043 112.304 250.329 250.35 250.329 138.006 0 250.292-112.304 250.292-250.329-0.003-138.006-112.289-250.31-250.292-250.31zM512.021 623.913c-116.291 0-210.902-94.593-210.902-210.884s94.615-210.862 210.902-210.862c116.269 0 210.844 94.593 210.844 210.862-0.003 116.291-94.596 210.884-210.844 210.884zM880.178 647.424c-20.117 0-36.391-16.311-36.391-36.391 0-20.098 16.271-36.388 36.391-36.388 20.098 0 36.37 16.293 36.37 36.388-0.018 20.080-16.293 36.391-36.37 36.391z" />
<glyph unicode="&#xe914;" glyph-name="settings" d="M512 713.481c-146.394 0-265.481-119.087-265.481-265.481s119.087-265.481 265.481-265.481 265.481 119.087 265.481 265.481-119.087 265.481-265.481 265.481zM512 220.444c-125.478 0-227.556 102.078-227.556 227.556s102.078 227.556 227.556 227.556 227.556-102.078 227.556-227.556-102.078-227.556-227.556-227.556zM971.283 561.778h-38.267c-9.766 36.257-24.121 70.959-42.856 103.481l27.041 27.041c9.956 9.956 15.436 23.211 15.436 37.281 0 14.089-5.48 27.326-15.436 37.3l-86.338 86.338c-19.911 19.892-54.632 19.93-74.581 0l-27.041-27.041c-32.54 18.716-67.224 33.071-103.462 42.837v38.267c0 29.070-23.647 52.717-52.717 52.717h-122.121c-29.070 0-52.717-23.647-52.717-52.717v-38.267c-36.238-9.766-70.921-24.121-103.481-42.856l-27.041 27.041c-19.93 19.949-54.67 19.911-74.581 0l-86.338-86.338c-9.956-9.956-15.436-23.211-15.436-37.3 0-14.071 5.48-27.307 15.436-37.281l27.041-27.041c-18.716-32.503-33.090-67.205-42.837-103.462h-38.267c-29.070 0-52.717-23.647-52.717-52.717v-122.103c0-29.089 23.647-52.736 52.717-52.736h38.267c9.766-36.238 24.121-70.921 42.856-103.481l-27.041-27.041c-9.956-9.956-15.436-23.211-15.436-37.281 0-14.089 5.48-27.326 15.436-37.3l86.338-86.338c19.911-19.93 54.651-19.949 74.581 0l27.041 27.041c32.559-18.716 67.243-33.090 103.481-42.856v-38.267c0-29.070 23.647-52.717 52.717-52.717h122.103c29.070 0 52.717 23.647 52.717 52.717v38.267c36.238 9.766 70.921 24.121 103.481 42.856l27.041-27.041c19.949-19.949 54.651-19.911 74.581 0l86.338 86.338c9.956 9.956 15.436 23.211 15.436 37.3 0 14.071-5.48 27.307-15.436 37.281l-27.041 27.041c18.716 32.559 33.090 67.243 42.856 103.481h38.267c29.070 0 52.717 23.647 52.717 52.717v122.121c-0.019 29.070-23.666 52.717-52.736 52.717zM986.074 386.939c0-8.154-6.637-14.791-14.791-14.791h-68.115l-3.413-14.658c-9.88-42.42-26.529-82.679-49.55-119.675l-7.964-12.781 48.147-48.147c5.784-5.784 5.784-15.17 0-20.935l-86.338-86.338c-5.765-5.765-15.151-5.803-20.935 0l-48.147 48.147-12.781-7.964c-36.978-23.021-77.236-39.689-119.675-49.55l-14.658-3.413v-68.115c0-8.154-6.637-14.791-14.791-14.791h-122.121c-8.154 0-14.791 6.637-14.791 14.791v68.115l-14.658 3.413c-42.42 9.88-82.679 26.529-119.675 49.55l-12.781 7.964-48.147-48.147c-5.803-5.803-15.189-5.765-20.935 0l-86.338 86.338c-5.784 5.784-5.784 15.17 0 20.935l48.147 48.147-7.964 12.781c-23.021 36.978-39.689 77.236-49.55 119.675l-3.413 14.658h-68.115c-8.154 0-14.791 6.637-14.791 14.791v122.121c0 8.154 6.637 14.791 14.791 14.791h68.115l3.413 14.658c9.88 42.439 26.529 82.697 49.55 119.675l7.964 12.781-48.147 48.147c-5.784 5.784-5.784 15.17 0 20.935l86.338 86.338c5.765 5.765 15.151 5.803 20.935 0l48.147-48.147 12.781 7.964c36.978 23.021 77.236 39.689 119.675 49.55l14.658 3.413v68.115c0 8.154 6.637 14.791 14.791 14.791h122.103c8.173 0 14.81-6.637 14.81-14.791v-68.115l14.658-3.413c42.42-9.88 82.679-26.529 119.675-49.55l12.781-7.964 48.147 48.147c5.803 5.803 15.189 5.765 20.935 0l86.338-86.338c5.784-5.784 5.784-15.17 0-20.935l-48.147-48.147 7.964-12.781c23.021-36.959 39.689-77.217 49.55-119.675l3.413-14.658h68.115c8.154 0 14.791-6.637 14.791-14.791v-122.121zM512 637.63c-104.562 0-189.63-85.068-189.63-189.63s85.068-189.63 189.63-189.63 189.63 85.068 189.63 189.63-85.068 189.63-189.63 189.63zM512 296.296c-83.646 0-151.704 68.058-151.704 151.704s68.058 151.704 151.704 151.704 151.704-68.058 151.704-151.704-68.058-151.704-151.704-151.704z" />
<glyph unicode="&#xe915;" glyph-name="help" d="M428.276 460.76c-76.195 0-138.184-61.992-138.184-138.184 0-76.199 61.992-138.187 138.184-138.187 76.199 0.003 138.187 61.995 138.187 138.187s-61.982 138.184-138.187 138.184zM428.276 234.959c-48.311 0-87.614 39.306-87.614 87.617s39.303 87.614 87.628 87.614c48.304 0 87.604-39.303 87.604-87.614s-39.306-87.617-87.617-87.617zM868.346 960h-311.538c-62.835 0-113.951-51.136-113.951-113.995v-136.852h-66.193c-13.967 0-25.285-11.318-25.285-25.285v-44.127c-32.924-7.919-64.062-20.825-92.988-38.538l-31.212 31.215c-9.875 9.868-25.885 9.875-35.756 0l-72.989-72.986c-4.743-4.743-7.407-11.173-7.407-17.882 0-6.706 2.663-13.135 7.403-17.882l31.215-31.215c-17.713-28.926-30.615-60.060-38.534-92.985h-44.127c-13.967 0-25.285-11.318-25.285-25.285v-103.223c0-13.967 11.318-25.285 25.285-25.285h44.127c7.919-32.921 20.825-64.059 38.534-92.985l-31.215-31.212c-9.875-9.878-9.875-25.885 0-35.763l72.989-72.989c9.878-9.871 25.885-9.871 35.76 0l31.212 31.215c28.923-17.713 60.064-30.615 92.988-38.538v-44.127c0-13.967 11.318-25.285 25.285-25.285h103.223c13.967 0 25.285 11.318 25.285 25.285v44.127c32.928 7.923 64.065 20.825 92.985 38.538l31.218-31.215c9.871-9.871 25.882-9.871 35.76 0l72.989 72.989c4.74 4.743 7.403 11.176 7.403 17.882s-2.663 13.135-7.403 17.882l-31.215 31.215c17.71 28.923 30.615 60.064 38.534 92.981h44.127c13.967 0 25.285 11.318 25.285 25.285v103.223c0 13.967-11.318 25.285-25.285 25.285h-44.127c-2.835 11.776-6.382 23.292-10.488 34.59l47.934 34.512h85.46c62.835 0 113.954 51.143 113.954 114.005v263.429c-0.003 62.858-51.123 113.995-113.958 113.995zM699.941 369.883c2.097-12.123 12.612-20.98 24.917-20.98h39.428v-52.653h-39.428c-12.302 0-22.821-8.856-24.917-20.98-6.969-40.331-22.493-77.787-46.137-111.331-7.087-10.050-5.907-23.748 2.788-32.446l27.894-27.888-37.233-37.233-27.894 27.891c-8.698 8.698-22.392 9.875-32.446 2.785-33.535-23.643-70.997-39.161-111.331-46.137-12.123-2.097-20.98-12.612-20.98-24.917v-39.428h-52.653v39.428c0 12.302-8.856 22.821-20.98 24.917-40.335 6.969-77.793 22.493-111.331 46.137-10.050 7.090-23.744 5.917-32.449-2.785l-27.888-27.891-37.233 37.233 27.891 27.888c8.695 8.698 9.875 22.396 2.788 32.446-23.643 33.545-39.165 71.004-46.137 111.331-2.097 12.123-12.612 20.98-24.917 20.98h-39.424v52.653h39.428c12.302 0 22.821 8.856 24.917 20.98 6.969 40.328 22.493 77.787 46.137 111.338 7.087 10.053 5.907 23.748-2.788 32.446l-27.891 27.888 37.233 37.23 27.888-27.891c8.705-8.698 22.399-9.875 32.446-2.785 33.548 23.643 71.007 39.165 111.335 46.137 12.123 2.097 20.98 12.612 20.98 24.917v39.424h40.908v-76.003c0-62.862 51.116-114.005 113.951-114.005h25.433v-95.108c0-9.487 5.313-18.182 13.758-22.504 3.634-1.864 7.585-2.781 11.523-2.781 5.209 0 10.394 1.608 14.78 4.767l69.726 50.206c3.294-10.856 5.95-21.947 7.909-33.275zM931.73 582.583c0-34.978-28.434-63.435-63.384-63.435h-93.615c-5.303 0-10.468-1.665-14.777-4.767l-127.146-91.548v71.030c0 13.967-11.321 25.285-25.285 25.285h-50.715c-34.947 0-63.381 28.457-63.381 63.435v263.422c0 34.971 28.434 63.425 63.381 63.425h311.538c34.951 0 63.384-28.454 63.384-63.425v-263.422zM709.759 876.944c-58.26 0-105.661-47.401-105.661-105.664 0-13.964 11.318-25.285 25.285-25.285s25.285 11.321 25.285 25.285c0 30.379 24.712 55.094 55.091 55.094s55.091-24.715 55.091-55.094c0-30.413-39.31-69.331-65.323-95.085-2.633-2.609-5.192-5.141-7.646-7.596-9.875-9.878-9.875-25.885 0-35.76 4.939-4.936 11.412-7.403 17.882-7.403s12.943 2.468 17.882 7.403c2.394 2.397 4.895 4.872 7.467 7.42 33.895 33.555 80.312 79.516 80.312 131.020-0.003 58.267-47.401 105.664-105.664 105.664zM702.47 603.523c-7.99 0-15.815-3.236-21.442-8.9-5.664-5.63-8.9-13.452-8.9-21.442s3.236-15.812 8.9-21.475c5.63-5.63 13.452-8.867 21.442-8.867s15.808 3.236 21.475 8.867c5.63 5.667 8.867 13.485 8.867 21.475s-3.236 15.812-8.867 21.442c-5.664 5.664-13.485 8.9-21.475 8.9z" />
<glyph unicode="&#xe916;" glyph-name="bell" d="M956.528 116.764c-86.761 86.221-130.737 188.267-130.737 303.309v167.452c0.801 127.665-85.048 212.34-158.813 246.058-21.132 9.663-42.915 17.11-65.052 22.64v10.687c0 51.33-41.761 93.091-93.091 93.091s-93.091-41.761-93.091-93.091v-12.307c-19.94-5.381-39.545-12.4-58.573-21.187-81.529-37.571-164.119-128.13-164.864-245.779v-167.564c0-118.933-42.003-220.979-124.835-303.309-4.934-4.915-6.721-12.158-4.636-18.804s7.727-11.562 14.597-12.753l176.705-30.515c32.917-5.679 63.227-10.333 92.067-14.168 32.507-63.674 96.312-104.522 166.018-104.522 69.725 0 133.548 40.886 166.018 104.597 28.728 3.817 58.889 8.453 91.62 14.113l176.687 30.515c6.87 1.173 12.493 6.107 14.597 12.753 2.104 6.628 0.317 13.871-4.617 18.786zM452.962 866.909c0 30.794 25.060 55.855 55.855 55.855s55.855-25.060 55.855-55.855v-3.389c-37.106 5.325-74.752 5.101-111.709-0.875v4.264zM512.223-26.764c-47.141 0-91.192 23.422-119.473 61.719 41.612-4.282 80.449-6.442 119.268-6.442 38.968 0 77.936 2.16 119.715 6.498-28.3-38.335-72.369-61.775-119.51-61.775zM763.532 91.406c-35.728-6.163-68.478-11.171-99.421-15.118-0.037 0-0.074 0-0.112 0-13.629-1.731-26.885-3.24-39.862-4.543-0.13-0.019-0.279-0.019-0.41-0.037-11.86-1.192-23.459-2.141-34.928-2.979-2.178-0.168-4.338-0.298-6.516-0.447-9.942-0.652-19.773-1.173-29.547-1.545-2.011-0.074-4.022-0.186-6.032-0.242-23.161-0.782-46.006-0.782-69.148-0.019-2.048 0.074-4.133 0.168-6.181 0.261-9.644 0.372-19.363 0.875-29.175 1.527-2.309 0.149-4.617 0.298-6.945 0.465-11.171 0.801-22.472 1.75-34.034 2.886-0.41 0.037-0.801 0.074-1.192 0.112-12.884 1.285-26.047 2.793-39.582 4.506-0.056 0-0.112 0-0.168 0-31.055 3.928-63.916 8.974-99.812 15.155l-142.634 24.65c74.156 84.787 111.709 186.889 111.709 304.035v167.452c0.633 101.19 72.387 179.423 143.192 212.080 21.057 9.7 42.896 16.943 65.108 22.025 0.186 0.037 0.391 0.019 0.577 0.056 45.875 10.314 94.711 10.78 141.126 1.266 0.242-0.056 0.484 0.056 0.726 0.019 24.278-5.064 48.184-12.735 71.215-23.254 68.682-31.409 137.7-109.121 137.048-212.098v-167.564c0-112.323 40.495-216.771 117.537-304.054l-142.541-24.595zM628.289 748.907c-72.145 32.973-160.489 33.010-232.15-0.037-40.867-18.842-110.182-73.97-110.741-161.122-0.056-10.277 8.211-18.655 18.506-18.73 0.037 0 0.074 0 0.112 0 10.221 0 18.562 8.248 18.618 18.506 0.428 68.459 56.208 112.361 89.088 127.535 62.017 28.616 138.631 28.542 201.058 0 9.346-4.282 20.406-0.168 24.688 9.179 4.282 9.365 0.168 20.406-9.179 24.669z" />
<glyph unicode="&#xe917;" glyph-name="test" d="M900.693 149.264c0.248 0.318 0.495 0.636 0.719 0.972 0.061 0.089 0.109 0.185 0.168 0.277 0.231 0.357 0.455 0.721 0.656 1.098 0.037 0.065 0.063 0.137 0.098 0.205 0.209 0.407 0.41 0.817 0.586 1.24 0.020 0.048 0.033 0.098 0.052 0.144 0.179 0.444 0.346 0.895 0.486 1.357 0.017 0.054 0.026 0.113 0.044 0.168 0.133 0.453 0.253 0.911 0.346 1.377 0.026 0.133 0.037 0.266 0.061 0.399 0.068 0.394 0.137 0.784 0.176 1.187 0.054 0.54 0.083 1.085 0.083 1.632v784.34c0 9.026-7.316 16.34-16.34 16.34h-751.66c-9.022 0-16.338-7.314-16.338-16.34v-991.319c0-9.026 7.316-16.34 16.34-16.34h544.681c0.547 0 1.092 0.028 1.632 0.083 0.405 0.041 0.802 0.109 1.196 0.179 0.129 0.022 0.259 0.033 0.388 0.057 0.466 0.094 0.922 0.216 1.373 0.344 0.057 0.017 0.118 0.028 0.174 0.046 0.453 0.137 0.893 0.301 1.327 0.475 0.059 0.024 0.118 0.041 0.176 0.063 0.412 0.172 0.808 0.366 1.203 0.569 0.081 0.044 0.166 0.076 0.244 0.12 0.359 0.192 0.704 0.407 1.046 0.625 0.109 0.068 0.222 0.129 0.329 0.2 0.318 0.214 0.621 0.447 0.922 0.682 0.12 0.094 0.246 0.176 0.364 0.272 0.368 0.303 0.719 0.625 1.059 0.956 0.039 0.041 0.085 0.072 0.124 0.113l206.979 206.979c0.033 0.033 0.059 0.068 0.092 0.1 0.342 0.349 0.671 0.706 0.983 1.085 0.081 0.102 0.153 0.214 0.233 0.316zM152.511 927.319h718.979v-751.66h-190.638c-9.024 0-16.34-7.314-16.34-16.34v-190.638h-512v958.638zM848.382 142.979l-151.19-151.19v151.19h151.19zM443.834 753.021h313.272c9.024 0 16.34 7.314 16.34 16.34s-7.316 16.34-16.34 16.34h-313.272c-9.024 0-16.34-7.314-16.34-16.34s7.316-16.34 16.34-16.34zM298.914 714.231c3.19-3.19 7.373-4.784 11.554-4.784s8.364 1.595 11.554 4.784l87.149 87.149c6.381 6.384 6.381 16.728 0 23.11-6.381 6.379-16.728 6.379-23.108 0l-75.595-75.595-21.127 21.127c-6.381 6.379-16.728 6.379-23.108 0-6.381-6.384-6.381-16.728 0-23.11l32.681-32.681zM403.064 616.851c0-9.026 7.316-16.34 16.34-16.34h337.702c9.024 0 16.34 7.314 16.34 16.34s-7.316 16.34-16.34 16.34h-337.702c-9.024 0-16.34-7.314-16.34-16.34zM354.043 676.766h-87.149c-9.024 0-16.34-7.314-16.34-16.34v-87.149c0-9.026 7.316-16.34 16.34-16.34h87.149c9.024 0 16.34 7.314 16.34 16.34v87.149c0 9.026-7.316 16.34-16.34 16.34zM337.702 589.617h-54.468v54.468h54.468v-54.468zM757.106 480.681h-337.702c-9.024 0-16.34-7.314-16.34-16.34s7.316-16.34 16.34-16.34h337.702c9.024 0 16.34 7.314 16.34 16.34s-7.316 16.34-16.34 16.34zM354.043 524.255h-87.149c-9.024 0-16.34-7.314-16.34-16.34v-87.149c0-9.026 7.316-16.34 16.34-16.34h87.149c9.024 0 16.34 7.314 16.34 16.34v87.149c0 9.026-7.316 16.34-16.34 16.34zM337.702 437.106h-54.468v54.468h54.468v-54.468zM757.106 328.17h-337.702c-9.024 0-16.34-7.314-16.34-16.34s7.316-16.34 16.34-16.34h337.702c9.024 0 16.34 7.314 16.34 16.34s-7.316 16.34-16.34 16.34zM354.043 371.745h-87.149c-9.024 0-16.34-7.314-16.34-16.34v-87.149c0-9.026 7.316-16.34 16.34-16.34h87.149c9.024 0 16.34 7.314 16.34 16.34v87.149c0 9.026-7.316 16.34-16.34 16.34zM337.702 284.596h-54.468v54.468h54.468v-54.468zM615.489 175.66h-196.085c-9.024 0-16.34-7.314-16.34-16.34s7.316-16.34 16.34-16.34h196.085c9.024 0 16.34 7.314 16.34 16.34s-7.316 16.34-16.34 16.34zM354.043 219.234h-87.149c-9.024 0-16.34-7.314-16.34-16.34v-87.149c0-9.026 7.316-16.34 16.34-16.34h87.149c9.024 0 16.34 7.314 16.34 16.34v87.149c0 9.026-7.316 16.34-16.34 16.34zM337.702 132.085h-54.468v54.468h54.468v-54.468z" />
<glyph unicode="&#xe918;" glyph-name="attachment" d="M279.648-64c-68.788 0-133.276 26.62-181.593 74.957s-74.957 112.805-74.957 181.593c0 68.769 26.62 133.256 74.957 181.574l531.119 531.119c75.988 75.949 194.066 72.544 274.647-8.037s84.044-198.639 8.056-274.647l-498.953-498.953c-46.838-46.838-123.118-46.916-170.034 0-46.877 46.897-46.858 123.177 0 170.034l337.986 337.986c11.403 11.403 29.87 11.403 41.273 0s11.403-29.87 0-41.273l-337.986-337.986c-24.11-24.11-24.11-63.359 0-87.488 24.149-24.11 63.379-24.071 87.488 0l498.953 498.953c52.442 52.462 48.998 135.047-8.056 192.101s-139.639 60.499-192.101 8.037l-531.119-531.119c-37.303-37.303-57.852-87.138-57.852-140.301 0-53.182 20.549-103.017 57.852-140.32s87.138-57.852 140.32-57.852c53.162 0 102.997 20.549 140.301 57.852l531.119 531.119c11.403 11.403 29.87 11.403 41.273 0s11.403-29.87 0-41.273l-531.119-531.119c-48.317-48.317-112.805-74.957-181.574-74.957z" />
<glyph unicode="&#xe919;" glyph-name="timetale" d="M961.4 849.8h-146.2v47.4c0 22.6-18.2 40.8-40.8 40.8s-40.8-18.2-40.8-40.8v-47.4h-442.6v47.4c0 22.6-18.2 40.8-40.8 40.8s-40.8-18.2-40.8-40.8v-47.4h-146.4c-22.6 0-40.8-18.2-40.8-40.8v-810.2c0-22.6 18.2-40.8 40.8-40.8h898.4c22.6 0 40.8 18.2 40.8 40.8v810.2c0 22.6-18.4 40.8-40.8 40.8zM920.4 39.6h-816.6v728.6h105.4v-41.2c0-22.6 18.2-40.8 40.8-40.8s40.8 18.2 40.8 40.8v41.2h442.4v-41.2c0-22.6 18.2-40.8 40.8-40.8s40.8 18.2 40.8 40.8v41.2h105.4v-728.6zM413.6 424c18.2 8.6 32 20.4 41.2 35.2s14 31.2 14 49c0 19-4.8 36.8-14.6 53.6s-23.8 30.2-42.2 39.8c-18.4 9.8-38.6 14.6-60.4 14.6-31.6 0-58.2-9.4-79.4-28.2-21.4-18.8-35-45.4-41-79.6l49.2-9c3.6 25 11.8 43.6 24.6 56.2 12.8 12.4 28.6 18.8 47.8 18.8s35-6.2 47.2-18.4c12.2-12.2 18.2-27.8 18.2-46.6 0-23.6-8.4-41.2-25.2-52.4-16.8-11.4-35.6-17-56.6-17-2 0-4.6 0.2-8 0.6l-5.4-44.8c13.8 3.8 25.4 5.6 34.6 5.6 22.8 0 41.6-7.6 56.2-22.8 14.8-15.2 22.2-34.6 22.2-58 0-24.6-8-45.2-23.8-61.8-16-16.6-35.4-25-58.6-25-19.4 0-36 6.4-49.6 19.2s-23.2 33.6-28.8 62.6l-49.2-6.8c3.2-34.6 16.6-62.8 39.8-84.6s52.4-32.6 87.6-32.6c39 0 71.2 12.6 96.6 37.8s38.2 56 38.2 92.4c0 26.8-6.6 49.2-19.6 67s-31.4 29.6-55 35.2zM764.2 564c-10.6 17-24 29.8-40.2 38.8s-35 13.4-56.6 13.4c-29.2 0-53.2-8.2-72.6-24.4-19.2-16.2-33.6-39.4-43.4-69.4s-14.6-69.6-14.6-118.6c0-78 13.2-134.4 39.6-169 22-28.8 52.4-43.2 91-43.2 29.4 0 53.6 8.2 72.8 24.6s33.6 39.6 43.2 69.4c9.6 30 14.4 69.4 14.4 118.2 0 41.2-3 74-9 98.2-5.8 24.4-14 45-24.6 62zM724.4 267.8c-15.4-22.6-34.4-34-57-34s-41.6 11.2-57 33.8c-15.4 22.6-23 68-23 136.2s8.4 115 25.4 140.4c13.4 19.8 31.4 29.8 54 29.8 23 0 42-11.2 57.4-33.8s23-68 23-136.4c0.4-68-7.4-113.4-22.8-136z" />
<glyph unicode="&#xe91a;" glyph-name="message" d="M898.993 837.641h-773.774c-69.072 0-125.219-56.147-125.219-125.219v-528.844c0-69.072 56.147-125.219 125.219-125.219h773.562c69.072 0 125.219 56.147 125.219 125.219v528.632c0.212 69.072-55.935 125.431-125.007 125.431zM967.005 183.578c0-37.502-30.51-68.012-68.012-68.012h-773.774c-37.502 0-68.012 30.51-68.012 68.012v528.632c0 37.502 30.51 68.012 68.012 68.012h773.562c37.502 0 68.012-30.51 68.012-68.012v-528.632h0.212zM645.8 454.568l250.438 224.589c11.653 10.594 12.713 28.603 2.119 40.468-10.594 11.653-28.603 12.713-40.468 2.119l-345.359-309.976-67.377 60.173c-0.212 0.212-0.424 0.424-0.424 0.636-1.483 1.483-2.966 2.754-4.661 4.026l-274.168 245.353c-11.865 10.594-29.875 9.534-40.468-2.331s-9.534-29.875 2.331-40.468l253.405-226.496-252.345-236.242c-11.441-10.806-12.077-28.815-1.271-40.468 5.721-5.933 13.348-9.111 20.976-9.111 6.992 0 13.984 2.543 19.493 7.628l256.159 239.633 69.496-62.080c5.509-4.873 12.289-7.204 19.069-7.204s13.772 2.543 19.069 7.416l71.402 63.987 254.676-241.963c5.509-5.297 12.713-7.839 19.705-7.839 7.628 0 15.043 2.966 20.764 8.899 10.806 11.441 10.382 29.663-1.059 40.468l-251.498 238.785z" />
<glyph unicode="&#xe91b;" glyph-name="homework" d="M273.067 644.267c0-42.342 34.458-76.8 76.8-76.8s76.8 34.458 76.8 76.8-34.458 76.8-76.8 76.8-76.8-34.458-76.8-76.8zM349.867 686.933c23.535 0 42.667-19.132 42.667-42.667s-19.132-42.667-42.667-42.667-42.667 19.132-42.667 42.667 19.132 42.667 42.667 42.667zM349.867 499.2c-42.342 0-76.8-34.458-76.8-76.8s34.458-76.8 76.8-76.8 76.8 34.458 76.8 76.8-34.458 76.8-76.8 76.8zM349.867 379.733c-23.535 0-42.667 19.132-42.667 42.667s19.132 42.667 42.667 42.667 42.667-19.132 42.667-42.667-19.132-42.667-42.667-42.667zM349.867 277.333c-42.342 0-76.8-34.458-76.8-76.8s34.458-76.8 76.8-76.8 76.8 34.458 76.8 76.8-34.458 76.8-76.8 76.8zM349.867 157.867c-23.535 0-42.667 19.132-42.667 42.667s19.132 42.667 42.667 42.667 42.667-19.132 42.667-42.667-19.132-42.667-42.667-42.667zM477.867 652.8h256c9.438 0 17.067 7.629 17.067 17.067s-7.629 17.067-17.067 17.067h-256c-9.438 0-17.067-7.629-17.067-17.067s7.629-17.067 17.067-17.067zM477.867 584.533h256c9.438 0 17.067 7.629 17.067 17.067s-7.629 17.067-17.067 17.067h-256c-9.438 0-17.067-7.629-17.067-17.067s7.629-17.067 17.067-17.067zM477.867 430.933h256c9.438 0 17.067 7.629 17.067 17.067s-7.629 17.067-17.067 17.067h-256c-9.438 0-17.067-7.629-17.067-17.067s7.629-17.067 17.067-17.067zM477.867 362.667h256c9.438 0 17.067 7.629 17.067 17.067s-7.629 17.067-17.067 17.067h-256c-9.438 0-17.067-7.629-17.067-17.067s7.629-17.067 17.067-17.067zM477.867 209.067h256c9.438 0 17.067 7.629 17.067 17.067s-7.629 17.067-17.067 17.067h-256c-9.438 0-17.067-7.629-17.067-17.067s7.629-17.067 17.067-17.067zM477.867 140.8h256c9.438 0 17.067 7.629 17.067 17.067s-7.629 17.067-17.067 17.067h-256c-9.438 0-17.067-7.629-17.067-17.067s7.629-17.067 17.067-17.067zM887.467 908.8h-153.6v34.133c0 9.438-7.629 17.067-17.067 17.067h-392.533c-9.438 0-17.067-7.629-17.067-17.067v-34.133h-170.667c-9.438 0-17.067-7.629-17.067-17.067v-938.667c0-9.438 7.629-17.067 17.067-17.067h750.933c9.438 0 17.067 7.629 17.067 17.067v938.667c0 9.438-7.629 17.067-17.067 17.067zM324.267 772.267h392.533c9.438 0 17.067 7.629 17.067 17.067v17.067h68.267v-768h-580.267v768h85.333v-17.067c0-9.438 7.629-17.067 17.067-17.067zM341.333 925.867h358.4v-119.467h-358.4v119.467zM870.4-29.867h-716.8v904.533h153.6v-34.133h-102.4c-9.438 0-17.067-7.629-17.067-17.067v-802.133c0-9.438 7.629-17.067 17.067-17.067h614.4c9.438 0 17.067 7.629 17.067 17.067v802.133c0 9.438-7.629 17.067-17.067 17.067h-85.333v34.133h136.533v-904.533zM392.533 857.6h256c9.438 0 17.067 7.629 17.067 17.067s-7.629 17.067-17.067 17.067h-256c-9.438 0-17.067-7.629-17.067-17.067s7.629-17.067 17.067-17.067z" />
<glyph unicode="&#xe91c;" glyph-name="assignment" d="M786.144 122.632c3.715 2.994 6.096 7.578 6.096 12.722 0 0.144 0 742.945 0 742.945 0 9.026-7.314 16.34-16.34 16.34h-472.75c-11.658 37.807-46.921 65.362-88.502 65.362-40.912 0-76.711-27.265-88.487-65.362h-52.359c-9.026 0-16.34-7.314-16.34-16.34v-925.957c0-9.026 7.314-16.34 16.34-16.34h518.944c5.283 0 9.863 2.379 12.859 6.087l180.54 180.544zM609.228-8.068v127.081h127.078l-127.078-127.081zM214.648 927.319c23.232 0 43.405-13.301 53.34-32.681h-106.683c10.031 19.495 30.448 32.681 53.344 32.681zM90.143 861.957h184.42v-114.383c0-15.018-12.216-27.234-27.234-27.234s-27.234 12.216-27.234 27.234v65.362c0 9.026-7.314 16.34-16.34 16.34s-16.34-7.314-16.34-16.34v-65.362c0-33.036 26.879-59.915 59.915-59.915s59.915 26.879 59.915 59.915v114.383h452.316v-710.264h-166.672c-9.026 0-16.34-7.314-16.34-16.34v-166.672h-486.404v893.277zM645.177 207.251c9.026 0 16.34 7.314 16.34 16.34s-7.314 16.34-16.34 16.34h-440.651c-9.026 0-16.34-7.314-16.34-16.34s7.314-16.34 16.34-16.34h440.651zM204.525 305.294h440.651c9.026 0 16.34 7.314 16.34 16.34s-7.314 16.34-16.34 16.34h-440.651c-9.026 0-16.34-7.314-16.34-16.34s7.314-16.34 16.34-16.34zM204.525 403.336h440.651c9.026 0 16.34 7.314 16.34 16.34s-7.314 16.34-16.34 16.34h-440.651c-9.026 0-16.34-7.314-16.34-16.34s7.314-16.34 16.34-16.34zM204.525 501.379h440.651c9.026 0 16.34 7.314 16.34 16.34s-7.314 16.34-16.34 16.34h-440.651c-9.026 0-16.34-7.314-16.34-16.34s7.314-16.34 16.34-16.34zM204.525 599.421h440.651c9.026 0 16.34 7.314 16.34 16.34s-7.314 16.34-16.34 16.34h-440.651c-9.026 0-16.34-7.314-16.34-16.34s7.314-16.34 16.34-16.34zM863.049 894.638h-21.787c-9.026 0-16.34-7.314-16.34-16.34s7.314-16.34 16.34-16.34h5.447v-893.277h-174.455c-9.026 0-16.34-7.314-16.34-16.34s7.314-16.34 16.34-16.34h190.795c9.026 0 16.34 7.314 16.34 16.34v925.957c0 9.026-7.314 16.34-16.34 16.34zM950.198 894.638h-21.787c-9.026 0-16.34-7.314-16.34-16.34s7.314-16.34 16.34-16.34h5.447v-893.277h-5.447c-9.026 0-16.34-7.314-16.34-16.34s7.314-16.34 16.34-16.34h21.787c9.026 0 16.34 7.314 16.34 16.34v925.957c0 9.026-7.314 16.34-16.34 16.34z" />
<glyph unicode="&#xe91d;" glyph-name="tag" d="M108.537-48.794h279.992c51.336 0 123.031 29.696 159.327 65.994l433.716 433.714c36.296 36.296 36.296 95.695 0 131.992l-334.667 334.663c-36.296 36.298-95.692 36.298-131.99 0l-433.716-433.714c-36.296-36.298-65.994-107.995-65.994-159.325v-279.992c0.002-51.332 41.999-93.331 93.331-93.331zM232.553 261.703c51.444 0 93.149-41.703 93.149-93.149 0-51.444-41.705-93.149-93.149-93.149s-93.149 41.705-93.149 93.149c0 51.444 41.705 93.149 93.149 93.149z" />
<glyph unicode="&#xe91e;" glyph-name="pencil-edit" d="M636.75 787.445l208.305-208.303-527.277-527.277-208.187 208.303 527.159 527.277zM1003.117 837.683l-92.896 92.896c-35.901 35.901-94.197 35.901-130.22 0l-88.985-88.985 208.305-208.305 103.796 103.796c27.845 27.847 27.845 72.753 0 100.598zM0.581-32.618c-3.791-17.061 11.613-32.348 28.676-28.199l232.121 56.28-208.187 208.303-52.61-236.384z" />
<glyph unicode="&#xe91f;" glyph-name="class" d="M1014.345 640.398l-210.431-202.908-43.171 45.754 159.252 153.569c15.402 14.853 15.822 39.361 0.969 54.763l-142.171 147.434c-7.201 7.427-16.887 11.657-27.22 11.818-10.236 0.226-20.149-3.681-27.575-10.817l-125.51-120.989 108.977-112.852c8.912-9.332 8.202-24.702-1.13-33.775-6.555-6.264-16.145-8.234-24.282-5.586l-158.090 167.615 206.847 199.647c12.561 11.979 32.709 11.301 44.753-1.195l239.104-247.855c12.044-12.464 12.044-32.58-0.323-44.624zM299.97 38.842c-7.33-7.136-17.275-11.043-27.511-10.785-10.3 0.194-20.084 4.424-27.252 11.753l-142.171 147.499c-14.821 15.402-14.433 39.684 0.969 54.666l65.386-67.937c9.009-9.332 23.797-9.59 33.129-0.678s9.525 23.668 0.484 33.032l-65.29 68.034 17.404 16.823 65.386-67.937c8.944-9.267 23.733-9.59 33.129-0.678 9.299 9.073 9.525 23.765 0.484 33.161l-65.354 67.84 17.436 16.823 65.322-67.873c9.009-9.267 23.862-9.59 33.129-0.678 9.396 8.977 9.558 23.701 0.581 33.097l-65.386 67.873 17.404 16.823 65.386-67.808c8.977-9.396 23.765-9.687 33.129-0.678 3.455 3.358 5.715 7.556 6.619 11.883l-121.054 128.513-231.646-223.218c-12.399-12.044-12.399-32.225-0.42-44.657l239.104-248.016c12.012-12.464 32.225-13.142 44.624-1.033l228.191 219.957-43.139 45.754-178.077-171.555zM717.765 648.244c-30.158 31.159-29.254 81.079 2.002 111.141 31.095 30.126 80.982 29.222 111.044-1.97 30.158-31.224 29.093-81.144-2.002-111.141-31.030-30.126-80.918-29.222-111.044 1.97zM751.508 680.792c12.141-12.464 32.16-12.819 44.818-0.743 12.496 12.109 12.851 32.193 0.71 44.721-12.109 12.528-32.193 12.948-44.721 0.84s-12.916-32.193-0.807-44.818zM878.503 278.173l-205.782-193.899-458.609 486.604 205.846 193.899 458.545-486.604zM454.476 629.096c0.097 4.65-1.582 9.235-4.876 12.658l-22.409 23.701c-6.652 7.071-17.856 7.427-24.992 0.743l-12.141-11.398c-7.136-6.652-7.427-17.953-0.775-24.992l22.28-23.862c3.326-3.423 7.717-5.489 12.464-5.522 4.682-0.194 24.831 16.242 24.831 16.242 3.423 3.261 5.425 7.717 5.618 12.431zM773.045 272.651c7.201 6.716 7.459 17.953 0.71 25.057l-257.639 273.331c-3.229 3.487-7.62 5.489-12.399 5.586-4.617 0.161-9.235-1.614-12.625-4.779l-12.173-11.495c-7.136-6.684-7.459-17.856-0.743-24.992l257.606-273.364c3.358-3.423 7.685-5.489 12.496-5.618 4.714-0.161 9.267 1.614 12.722 4.843l12.044 11.431zM193.286 593.061l205.782 193.964-53.149 56.378-205.749-193.996 53.116-56.345zM48.434 746.856c-11.204 11.883-17.146 27.543-16.694 43.817 0.517 16.242 7.394 31.547 19.245 42.687l116.63 109.881c24.54 23.313 63.288 22.118 86.504-2.486l72.296-76.688-205.782-193.899-72.2 76.688zM85.148 789.059l37.779-40.168 124.735 117.534-37.876 40.104-124.638-117.47zM982.895 1.193c3.52-11.172 0.323-23.345-8.137-31.353-8.524-8.040-20.859-10.397-31.741-6.232l-244.239 93.188 205.556 193.964 78.561-249.566zM917.638 84.952l-30.901 98.128-119.504-112.723 96.158-36.681 54.247 51.276z" />
<glyph unicode="&#xe920;" glyph-name="student" d="M824.995 239.988c-7.564 18.097-25.776 29.685-43.152 36.811l-117.463 54.087-56.435 47.594-90.748-90.19 39.135-261.604c0.141-0.897-0.092-1.815-0.625-2.548l-40.918-55.997c-0.65-0.902-1.688-1.423-2.795-1.423s-2.145 0.528-2.795 1.423l-40.913 55.997c-0.54 0.733-0.766 1.658-0.63 2.548l39.131 261.609h-0.060l-90.674 90.185-56.435-47.594-117.47-54.087c-17.38-7.126-34.459-17.948-43.148-36.811 0 0-127.686-303.986-58.429-303.986h742.866c69.245-0.007-58.443 303.986-58.443 303.986zM833.153 656.786c1.769 0.191 3.36 1.035 4.455 2.403 1.109 1.365 1.61 3.125 1.414 4.875-1.314 11.228-2.636 22.433-3.939 33.661l-2.737 23.496c-0.417 3.507-3.556 6.058-7.089 5.742l-5.080-0.007 0.097 78.87 2.659 0.966 8.867 3.201c7.508 2.716 12.508 9.835 12.508 17.812 0 7.979-4.999 15.1-12.508 17.818l-313.367 113.248c-4.167 1.506-8.724 1.506-12.881 0l-313.372-113.248c-7.504-2.719-12.503-9.84-12.503-17.818 0-7.976 4.999-15.095 12.503-17.812l115.844-41.865c-8.177-25.816-11.899-55.374-11.565-88.283 2.039-187.713 111.006-299.651 211.834-299.651 99.649 0 209.798 111.938 211.827 299.651 0.337 31.897-3.18 60.627-10.831 85.871l84.234 30.439 0.178-69.228-5.089 0.002c-3.535 0.309-6.676-2.232-7.079-5.767l-6.588-57.161c-0.198-1.741 0.316-3.482 1.418-4.852 1.105-1.363 2.712-2.237 4.455-2.382zM508.307 425.778c-87.969 0-148.67 103.051-160.915 206.066-11.322 95.27 126.456 99.705 134.458 40.655 2.465-18.153-18.379-37.599-16.015-45.096 11.659-37.009 204.708 120.795 203.389 4.487-0.929-82.119-77.101-206.113-160.917-206.113z" />
<glyph unicode="&#xe921;" glyph-name="parent" d="M985.098 791.671c-6.787 37.222-23.793 71.832-49.183 100.11-0.050 0.055-0.097 0.112-0.147 0.167-13.005 14.685-34.556 34.874-63.363 47.667l-0.656 0.291c-27.803 13.335-57.64 20.095-88.676 20.095-45.9 0-89.315-14.816-125.553-42.851-0.035-0.027-0.199-0.157-0.244-0.189-31.153-24.327-51.713-59.089-54.258-63.517v0c-0.114-0.194-0.226-0.39-0.333-0.586-16.345-29.966-24.983-63.932-24.983-98.229 0-7.122 0.373-14.332 1.113-21.424 0.688-6.628 4.655-12.468 10.557-15.557 3.738-1.956 7.644-3.584 11.658-4.871 15.999-48.972 50.942-88.137 95.366-110.163-19.043-9.727-36.146-22.587-50.94-38.316-7.522-7.997-7.137-20.579 0.862-28.102 7.997-7.52 20.579-7.135 28.102 0.862 7.11 7.56 14.891 14.275 23.283 20.1 12.035-34.098 43.055-59.079 78.336-59.079h2.967c35.341 0 66.33 26.772 77.655 62.998 41.981-26.317 68.84-73.207 68.84-123.364v-206.511l-180.827-117.335c-9.212-5.977-11.834-18.288-5.855-27.498 3.807-5.867 10.186-9.061 16.695-9.061 3.71 0 7.46 1.036 10.803 3.206l189.885 123.212c5.649 3.666 9.061 9.943 9.061 16.678v217.309c0 70.406-39.305 133.513-101.423 165.002 58.825 29.359 100.424 88.614 104.499 157.628 5.611 5.087 10.49 11.064 14.391 17.786 2.378 4.086 3.216 8.889 2.366 13.541zM779.010 537.838h-2.967c-23.793 0-43.895 23.062-43.895 50.361 0 0.34-0.007 0.678-0.025 1.016 15.415-4.053 31.539-6.198 48.072-6.198 14.13 0 27.92 1.576 41.183 4.56-1.556-26.879-20.686-49.74-42.369-49.74zM780.193 622.78c-59.948 0-113.103 35.711-136.388 89.241 27.605 7.808 48.721 31.228 53.174 60.073 11.861-1.523 23.882-2.291 35.942-2.291 40.438 0 79.395 8.477 114.283 24.71 8.991-30.878 37.55-53.507 71.293-53.507 2.46 0 4.906 0.124 7.329 0.368-14.019-67.545-74.173-118.592-145.633-118.592zM918.497 780.763c-19.009 0-34.474 15.46-34.474 34.466v11.064c0 7.234-3.929 13.897-10.261 17.398-6.335 3.504-14.068 3.288-20.192-0.562-34.983-21.961-76.703-33.569-120.652-33.569-17.187 0-34.26 1.812-50.744 5.385-5.872 1.275-12.011-0.179-16.693-3.954-4.679-3.775-7.401-9.463-7.401-15.475v-12.060c0-19.004-15.462-34.466-34.469-34.466-1.302 0-2.589 0.072-3.862 0.214-0.296 0.045-0.591 0.082-0.887 0.112-0.445 0.060-0.885 0.132-1.325 0.209-0.052 1.705-0.080 3.405-0.080 5.099 0 27.585 6.921 54.891 20.018 78.984 0.052 0.097 0.107 0.191 0.149 0.263 0.169 0.306 18.126 31.437 44.088 51.723 0.052 0.042 0.119 0.092 0.132 0.102 29.21 22.597 64.213 34.541 101.226 34.541 25.038 0 49.089-5.445 71.482-16.183 0.388-0.186 0.962-0.447 1.712-0.778 22.11-9.821 39.086-25.716 49.499-37.423 0.114-0.134 0.231-0.266 0.35-0.4 18.763-20.818 31.874-45.898 38.206-72.948-6.504-7.366-15.907-11.742-25.825-11.742zM610.867 272.1c45.050 26.509 75.354 75.513 75.354 131.455 0 25.174-6.138 48.947-16.991 69.894-0.39 0.88-0.835 1.717-1.332 2.512-25.81 47.6-76.233 79.998-134.082 79.998-57.861 0-108.294-32.408-134.097-80.031-0.482-0.775-0.917-1.593-1.297-2.448-10.867-20.955-17.008-44.737-17.008-69.926 0-55.933 30.289-104.927 75.326-131.438-55.749-28.82-91.062-86.027-91.062-149.338v-72.511c0-6.797 3.472-13.121 9.205-16.772l148.26-94.385c3.258-2.073 6.966-3.109 10.676-3.109 3.688 0 7.376 1.024 10.619 3.074l148.61 93.89c5.795 3.661 9.294 10.047 9.262 16.901l-0.35 73.005c-0.303 63.46-35.579 120.478-91.092 149.226zM533.816 516.198c34.605 0 65.61-15.681 86.291-40.314-26.79-7.677-56.169-11.68-86.286-11.68-30.127 0-59.509 4.004-86.296 11.68 20.681 24.632 51.688 40.314 86.291 40.314zM421.173 403.555c0 12.915 2.184 25.333 6.205 36.897 32.806-10.507 69.211-16.009 106.443-16.009 37.222 0 73.622 5.502 106.433 16.009 4.021-11.563 6.205-23.981 6.205-36.897 0-62.111-50.53-112.643-112.643-112.643-62.111 0-112.643 50.532-112.643 112.643zM569.104 255.273c-2.485-18.807-18.981-31.521-33.907-31.521h-2.421c-15.808 0-33.363 13.37-35.637 31.859 11.75-2.913 24.036-4.461 36.673-4.461 12.142 0 23.962 1.429 35.291 4.123zM533.858-20.578l-128.421 81.755v61.599c0 43.716 22.088 83.632 57.841 107.156 12.423-28.348 41.708-45.942 69.499-45.942h2.421c30.003 0 56.524 19.526 67.98 46.653 36.27-23.385 58.805-63.614 59.017-107.961l0.298-61.989-128.635-81.271zM391.056 513.072c5.795 9.327 2.932 21.586-6.392 27.381-6.054 3.762-12.331 7.175-18.773 10.211 24.568 12.56 46.3 30.55 63.552 53.052 7.105-2.465 14.732-3.807 22.664-3.807 38.204 0 69.285 31.081 69.285 69.285v49.407c0 62.804-23.991 122.285-67.553 167.482-43.437 45.065-101.753 71.243-164.204 73.714-0.005 0-0.012 0-0.017 0-5.427 0.209-10.48 0.258-15.447 0.137-62.173-1.501-120.819-26.665-165.136-70.856-45.435-45.304-70.458-105.849-70.458-170.479v-49.407c0-38.204 31.081-69.285 69.288-69.285 7.932 0 15.557 1.339 22.659 3.805 19.004-24.787 43.447-44.098 71.129-56.708-61.345-32.262-99.288-94.713-99.288-163.869v-162.735c0-6.735 3.41-13.012 9.061-16.678l180.357-117.027c3.342-2.17 7.093-3.206 10.803-3.206 6.509 0 12.89 3.196 16.695 9.061 5.977 9.212 3.355 21.524-5.855 27.498l-171.299 111.149v151.938c0 46 21.419 88.234 57.302 115.488 12.306-35.711 43.907-62.543 78.848-62.543h2.967c37.948 0 68.236 34.349 78.902 72.724 1.185-0.691 2.361-1.399 3.526-2.122 9.329-5.8 21.588-2.935 27.384 6.389zM157.035 790.855c-12.853-21.829-19.647-46.815-19.647-72.257v-49.407c0-9.419-4.433-17.821-11.325-23.231-0.591-0.385-1.156-0.798-1.692-1.235-4.714-3.193-10.398-5.057-16.509-5.057-16.28 0-29.523 13.243-29.523 29.523v49.409c0 110.372 86.442 198.916 196.784 201.585 4.125 0.102 8.362 0.057 12.955-0.119 108.533-4.302 193.551-92.794 193.551-201.466v-49.407c0-16.28-13.246-29.523-29.526-29.523-6.111 0-11.797 1.866-16.514 5.060-0.534 0.435-1.096 0.845-1.685 1.23-6.891 5.41-11.327 13.815-11.327 23.233v49.407c0 70.175-52.277 130.817-121.602 141.058-5.45 0.81-10.989-0.686-15.296-4.12s-6.998-8.499-7.431-13.991c-1.091-13.897-3.611-27.6-7.51-40.898h-96.574c-7.040 0-13.559-3.725-17.13-9.794zM281.243 475.842h-2.967c-22.475 0-44.536 27.284-44.536 55.085 0 1.715-0.221 3.402-0.644 5.020 15.1-3.84 30.823-5.84 46.889-5.84 15.209 0 30.115 1.794 44.471 5.241-1.352-28.909-23.231-59.506-43.214-59.506zM279.986 569.869c-46.337 0-89.104 21.096-117.201 57.133 9.001 11.692 14.361 26.33 14.361 42.192v49.407c0 14.645 3.116 29.071 9.076 42.287h98.865c8.323 0 15.763 5.181 18.648 12.99 4.97 13.444 8.72 27.314 11.215 41.439 39.804-14.488 67.866-53.040 67.866-96.716v-49.407c0-15.863 5.36-30.5 14.364-42.192-28.094-36.039-70.858-57.133-117.196-57.133z" />
<glyph unicode="&#xe922;" glyph-name="result" d="M141.623 960v-1024h740.787v1024h-740.787zM839.172-20.762h-654.311v937.523h654.311v-937.523zM287.607 434.901h470.422v-44.178h-470.422v44.178zM287.607 332.122h470.422v-44.211h-470.422v44.211zM287.607 229.444h470.422v-44.211h-470.422v44.211zM287.607 134.749h470.422v-44.178h-470.422v44.178zM547.037 633.348l6.877-23.213h51.96l-59.373 162.856h-49.008l-59.943-162.856h50.383l7.313 23.213h51.792zM521.946 718.449h0.47l14.592-50.215h-30.76l15.699 50.215zM655.183 725.259v-40.119h-40.152v-34.886h40.152v-40.152h34.919v40.152h40.119v34.886h-40.119v40.119zM577.461 483.205c112.306 0 203.646 72.388 203.646 184.66s-91.374 203.579-203.646 203.579c-34.349 0-87.080-16.638-95.165-23.749-8.151-7.178-5.568-23.514 9.493-16.47 15.128 7.044 54.71 21.233 85.672 21.233 101.773 0 184.66-82.82 184.66-184.593s-82.887-165.641-184.66-165.641-184.593 63.834-184.593 165.641c0 32.269 16.973 82.586 23.011 88.992 6.038 6.474-9.191 22.911-15.296 11.439-6.004-11.439-26.701-63.901-26.701-100.431 0-112.272 91.307-184.66 203.579-184.66z" />
<glyph unicode="&#xe923;" glyph-name="attendance" d="M195.508 626.541c2.414-14.552 8.027-23.753 13.573-29.561 13.182-87.835 86.595-169.34 153.744-169.34 78.242 0 149.502 88.226 163.206 169.144 5.677 5.743 11.355 15.009 13.834 29.757 4.437 16.445 10.18 45.027 0.131 58.47-0.522 0.653-1.109 1.37-1.631 1.892 9.462 34.521 21.404 105.911-21.339 154.527-3.785 4.829-27.799 33.476-79.025 48.616l-24.471 8.418c-40.328 12.464-65.648 15.27-66.757 15.4-1.827 0.131-3.72 0-5.482-0.457-1.37-0.392-6.199-1.697-9.919-1.175-9.658 1.37-24.145-3.589-26.69-4.568-3.328-1.37-81.44-32.628-105.128-105.389-2.219-5.873-11.681-36.804 0.914-112.632-1.892-1.305-3.589-2.871-5.025-4.764-10.18-13.312-4.437-41.894 0.065-58.339zM507.954 72.907c-14.422 8.092-30.083 15.857-46.789 23.231-8.092 3.589-16.314 6.982-24.471 10.18-6.395 2.414-13.965 5.547-19.251 6.917l-77.394 20.882 144.803 294.827 62.059-39.154c13.116-8.222 22.774-15.205 33.346-22.97l2.219-1.631c10.506-7.765 20.817-15.727 30.931-23.949 21.991-17.75 41.438-35.108 59.514-53.053 1.37-1.37 2.676-2.61 4.046-3.981 6.069 6.721 12.007 12.725 17.945 19.185-7.57 22.513-16.771 43.33-27.995 60.036 0 0-15.923 21.73-53.706 36.217 0 0-3.198 0.979-8.092 2.61-33.607 15.727-65.517 25.841-65.517 25.841-6.852 2.48-12.855 4.894-18.272 7.243-22.84 11.289-41.829 24.014-45.745 36.021 0 0 13.182-127.576-98.341-130.578l-15.531 0.718c-101.082 9.005-107.803 130.121-107.803 130.121-10.572-33.215-137.691-71.847-137.691-71.847-37.783-14.487-53.771-36.282-53.771-36.282-55.859-82.875-62.45-267.289-62.45-267.289 0.718-42.155 18.924-46.528 18.924-46.528 128.489-57.36 330.066-67.475 330.066-67.475 10.898-0.261 21.012 0.326 31.127 0.914l0.261-1.044c0 0 98.406 5.025 201.576 27.603l-12.594 16.51c-10.245 13.508-33.15 30.931-61.406 46.723zM471.28 465.945c1.37 1.762 2.871 3.524 4.307 5.482-0.326 1.175-0.392 1.762-0.392 1.762-1.24-2.545-2.676-4.698-3.915-7.243zM254.499 471.819l-0.326 1.37-0.261-1.436c0.065 0.261 0.326 0.522 0.392 0.783 0.065-0.065 0.131-0.326 0.196-0.718zM905.886 412.631c-36.609-25.841-70.738-55.076-103.235-85.812-32.563-30.931-63.429-63.494-93.121-97.101-11.028-12.529-21.73-25.189-32.367-37.914-0.131 0.196-0.261 0.392-0.326 0.587-15.661 20.882-32.628 39.48-50.247 56.903-17.619 17.358-35.891 33.411-54.685 48.681-9.462 7.57-18.99 15.009-28.713 22.318-10.115 7.309-18.99 13.9-31.388 21.73l-77.133-156.941c7.048-1.892 17.293-5.873 25.972-9.266 9.201-3.524 18.206-7.309 27.212-11.289 18.011-7.961 35.565-16.64 52.335-25.972 33.15-18.533 64.016-41.111 81.635-64.147l59.318-77.785 34.129 74.001c17.162 37.066 37.718 75.828 58.796 112.763 21.274 37.196 43.983 73.674 68.584 108.847s50.965 69.172 80.461 100.495c29.496 31.127 62.059 60.101 100.886 80.657-42.155-12.529-81.57-35.173-118.114-60.754z" />
<glyph unicode="&#xe924;" glyph-name="exam" d="M694 838h-92v32c0 16.568-13.432 30-30 30h-95.14c-12.382 34.922-45.748 60-84.86 60s-72.478-25.078-84.86-60h-97.14c-16.568 0-30-13.432-30-30v-32h-90c-49.626 0-90-40.374-90-90v-722c0-49.626 40.374-90 90-90h604c49.626 0 90 40.374 90 90v722c0 49.626-40.374 90-90 90zM240 840h92c16.568 0 30 13.432 30 30 0 16.542 13.458 30 30 30s30-13.458 30-30c0-16.568 13.432-30 30-30h90v-32c0-16.542-13.458-30-30-30h-242c-16.542 0-30 13.458-30 30v32zM724 26c0-16.542-13.458-30-30-30h-604c-16.542 0-30 13.458-30 30v722c0 16.542 13.458 30 30 30h95.16c12.384-34.918 45.73-60 84.84-60h242c39.11 0 72.456 25.082 84.84 60h97.16c16.542 0 30-13.458 30-30v-722zM353.386 439.036c-11.616 11.812-30.612 11.97-42.424 0.35l-100.788-99.136-38.962 38.962c-11.714 11.716-30.71 11.716-42.426 0s-11.716-30.71 0-42.426l60.002-60c5.854-5.854 13.532-8.786 21.212-8.786 7.596 0 15.198 2.868 21.036 8.612l122 120c11.812 11.618 11.968 30.612 0.35 42.424zM353.386 229.036c-11.616 11.812-30.612 11.97-42.424 0.35l-100.788-99.136-38.962 38.962c-11.714 11.716-30.71 11.716-42.426 0s-11.716-30.71 0-42.426l60.002-60c5.854-5.854 13.532-8.786 21.212-8.786 7.596 0 15.198 2.868 21.036 8.612l122 120c11.812 11.618 11.968 30.612 0.35 42.424zM291.214 529.212l-38.788 38.788 38.786 38.786c11.716 11.716 11.716 30.71 0 42.426-11.714 11.716-30.71 11.716-42.426 0l-38.786-38.786-38.788 38.786c-11.714 11.716-30.71 11.716-42.426 0s-11.716-30.71 0-42.426l38.788-38.786-38.786-38.786c-11.716-11.716-11.716-30.712 0-42.428 11.714-11.714 30.71-11.716 42.426 0l38.786 38.788 38.788-38.788c11.714-11.714 30.71-11.716 42.426 0s11.716 30.71 0 42.426zM634 598h-182c-16.568 0-30-13.432-30-30s13.432-30 30-30h182c16.568 0 30 13.432 30 30s-13.432 30-30 30zM634 388h-182c-16.568 0-30-13.432-30-30s13.432-30 30-30h182c16.568 0 30 13.432 30 30s-13.432 30-30 30zM634 178h-182c-16.568 0-30-13.432-30-30s13.432-30 30-30h182c16.568 0 30 13.432 30 30s-13.432 30-30 30zM934 778c-49.626 0-90-40.374-90-90 0-19.084 0-460.224 0-480 0-3.228 0.578-6.572 1.508-9.394l60-182c4.054-12.296 15.542-20.606 28.492-20.606s24.438 8.31 28.492 20.606l60 182c1.008 3.064 1.508 6.464 1.508 9.394 0 19.744 0 460.838 0 480 0 49.626-40.374 90-90 90zM934 121.818l-24.776 75.152c7.584 3.848 16.024 5.884 24.776 5.884s17.192-2.036 24.776-5.884l-24.776-75.152zM964 258.884c-9.664 2.598-19.724 3.97-30 3.97s-20.336-1.37-30-3.968v279.114h60v-279.116zM964 598h-60v90c0 16.542 13.458 30 30 30s30-13.458 30-30v-90z" />
<glyph unicode="&#xe925;" glyph-name="teacher" d="M880.004 6.836c-45.622 229.082-43.65 219.328-43.874 220.27-5.982 28.956-22.802 52.998-50.070 68.060-12.754 7.062-20.108 8.162-26.538 10.262l-112.082 38.93-37.354 25.62v29.060c54.624 32.45 89.4 88.336 95.758 148.812 45.646-2.116 77.46 41.512 58.322 79.708v122.28c0 88.428-48.092 119.192-62.786 126.524-71.894 85.826-206.144 107.838-307.915 55.616l-0.196-0.098c-1.746-1.026-22.72-10.73-48.548-32.326-6.266-5.42-6.952-14.892-1.534-21.158 5.428-6.274 14.902-6.944 21.158-1.534 99.672 83.692 247.612 62.186 316.003-22.144 1.684-2.074 3.734-3.604 6.236-4.54 1.944-0.78 47.584-19.988 47.584-100.34v-94.668c-8.322 3.524-17.446 5.33-27.17 5.058v49.062c0 12.446-9.376 22.732-21.808 23.932-25.208 2.434-39.332 18.858-46.744 32.204-9.276 16.706-31.42 20.708-45.94 8.3-66.882-57.17-143.89-60.074-196.714-52.456-39.902 5.76-77.014-21.418-83.472-61.062-9.712 0.42-19.308-1.3-28.13-5.036 0.058 51.642-5.9 107.83 36.336 172.216 4.532 6.936 2.582 16.23-4.354 20.762-6.934 4.534-16.23 2.588-20.762-4.352-57.48-88.076-36.914-166.996-41.222-216.238-19.128-38.182 12.644-81.826 58.32-79.706 7.456-71.226 51.332-112.2 52.374-113.984l0.002-0.002c7.788-7.466 21.774-23.062 49.036-38.088v-25.796l-37.35-25.618c-146.178-50.778-131.342-44.616-143.218-51.872-22.446-13.826-38.004-34.972-44.488-61.008-1.278-5.146 0.844 4.578-44.862-224.644-0.92-4.63-1.404-13.656-0.578-21.31 3.388-31.478 25.712-49.53 61.248-49.53h412.167c8.286 0 15 6.714 15 15s-6.714 15-15 15h-306.683v137.436c0 8.286-6.716 15-15 15s-15-6.714-15-15v-137.438h-75.488c-23.518 0-34.562 10.088-31.158 35.414 41.046 200.568 41.134 216.752 47.848 233.186 1.17 1.638 7.638 24.782 39.35 38.244 3.278 1.344 1.234 0.444 12.51 3.88 0.696 0.2-2.742-0.968 51.128 17.736l35.93-66.328c3.946-7.284 13.046-9.994 20.334-6.044 7.284 3.946 9.99 13.050 6.044 20.334l-33.592 62.014 22.972 7.98c11.074-20.444 109.124-201.438 119.782-221.11 6.578-12.184 23.326-12.792 31.042-2.152 1.398 1.926-6.588-12.41 120.922 223.33l22.968-7.978-121.43-224.618c-16.008-29.61-58.566-29.612-74.594-0.032l-54.726 101.024c-3.948 7.284-13.048 9.996-20.334 6.044-7.284-3.948-9.99-13.050-6.044-20.334l54.728-101.026c27.374-50.522 100.042-50.476 127.36 0.056l123.75 228.912c53.75-18.662 50.598-17.596 51.294-17.796 10.574-3.222 9.398-2.602 12.512-3.876 11.47-4.886 18.316-10.524 18.116-10.376 11.762-9.486 19.872-20.446 24.204-36.584 0.71-2.56 45.24-223.344 45.422-230.794 0.446-18.832-7.686-29.106-31.662-29.106h-75.494v137.438c0 8.286-6.714 15-15 15s-15-6.714-15-15v-137.438h-27.018c-8.286 0-15-6.714-15-15s6.714-15 15-15h132.506c35.536 0 57.858 18.052 61.242 49.512 0.818 7.506 0.338 16.724-0.576 21.324zM706.997 630.217c17.298 0.914 32.78-10.738 32.78-26.194 0-15.61-15.65-27.102-32.78-26.196v52.39zM311.361 577.827c-17.296-0.916-32.78 10.738-32.78 26.194 0 15.61 15.65 27.102 32.78 26.196v-52.39zM391.505 691.577c58.962-8.51 145.076-5.124 220.49 59.344l0.222-0.058c14.488-26.090 37.348-42.56 64.78-46.832v-53.118l-17.116-10.102c-7.048 10.156-18.776 16.832-32.044 16.832h-68.642c-16.19 0-30.098-9.922-35.988-24h-28.056c-5.89 14.078-19.8 24-35.99 24h-68.642c-13.27 0-25-6.676-32.044-16.832l-17.038 10.058c1.476 25.642 24.656 44.384 50.068 40.708zM636.837 618.643v-29.872c0-13.012-10.586-23.596-23.598-23.596h-39.45c-13.010 0-23.596 10.586-23.596 23.596v29.872h0.002c0 4.878 4.122 9 9 9h68.642c4.878 0 9-4.122 9-9zM468.161 618.643v-29.872c0-13.012-10.584-23.596-23.596-23.596h-39.45c-13.012 0-23.596 10.586-23.596 23.596v29.872c0 4.878 4.122 9 9 9h68.642c4.878 0 9-4.122 9-9zM381.813 459.907c-48.546 56.584-39.188 111.526-40.452 156.17l10.162-5.998v-21.308c0-29.552 24.042-53.596 53.594-53.596h39.45c29.552 0 53.594 24.042 53.594 53.596v14.874h22.042v-14.874c0-29.552 24.042-53.596 53.594-53.596h39.45c29.552 0 53.596 24.042 53.596 53.596v21.308l10.162 5.998v-46.902c0-89.216-70.612-166.732-167.82-167.8-0.202 0.002-2.222 0.016-2.022 0.014-25.93 0.262-45.856 6.908-43.84 6.342-29.434 8.164-57.506 25.016-81.51 52.176zM512.005 292.095l-68.084 75.76v14.548c31.31-10.874 63.78-13.374 94.014-8.966 8.436 1.226 17.516 3.236 22.828 4.736 1.262 0.41 8.504 2.142 19.326 6.306v-16.626l-68.084-75.758zM528.899 238.639l-6.628-13.648h-20.53l-6.63 13.648 16.894 12.408 16.894-12.408zM472.475 197.367l-9.552 17.632 7.608 5.586 5.686-11.708-3.742-11.51zM448.603 241.699l-45.574 84.304 23.57 16.254 63.186-70.312c-3.65-2.676-37.598-27.612-41.182-30.246zM512.001 124.408l-19.812 36.572 11.060 34.014h17.52l11.040-33.954c-6.28-11.608-12.11-22.392-19.808-36.632zM551.503 197.477l-3.708 11.404 5.686 11.708 7.526-5.528-9.504-17.584zM575.411 241.699c-3.898 2.862-36.484 26.796-41.18 30.246l63.186 70.312 23.57-16.254c-15.138-27.996-35.754-66.13-45.576-84.304z" />
</font></defs></svg>